
{
  "header": {
    "reportVersion": 1,
    "event": "Allocation failed - JavaScript heap out of memory",
    "trigger": "FatalError",
    "filename": "report.20201219.214332.3324.0.001.json",
    "dumpEventTime": "2020-12-19T21:43:32Z",
    "dumpEventTimeStamp": "1608435812851",
    "processId": 3324,
    "cwd": "C:\\ws_modo_client\\WSgestores\\GestorMartilloWS",
    "commandLine": [
      "node",
      "C:\\USERS\\SKYGUARDIANU\\APPDATA\\ROAMING\\NPM\\node_modules\\pm2\\lib\\ProcessContainerFork.js"
    ],
    "nodejsVersion": "v13.7.0",
    "wordSize": 64,
    "arch": "x64",
    "platform": "win32",
    "componentVersions": {
      "node": "13.7.0",
      "v8": "7.9.317.25-node.28",
      "uv": "1.34.1",
      "zlib": "1.2.11",
      "brotli": "1.0.7",
      "ares": "1.15.0",
      "modules": "79",
      "nghttp2": "1.40.0",
      "napi": "5",
      "llhttp": "2.0.1",
      "openssl": "1.1.1d",
      "cldr": "36.0",
      "icu": "65.1",
      "tz": "2019c",
      "unicode": "12.1"
    },
    "release": {
      "name": "node",
      "headersUrl": "https://nodejs.org/download/release/v13.7.0/node-v13.7.0-headers.tar.gz",
      "sourceUrl": "https://nodejs.org/download/release/v13.7.0/node-v13.7.0.tar.gz",
      "libUrl": "https://nodejs.org/download/release/v13.7.0/win-x64/node.lib"
    },
    "osName": "Windows_NT",
    "osRelease": "6.1.7601",
    "osVersion": "Windows Server 2008 R2 Standard Service Pack 1",
    "osMachine": "x86_64",
    "cpus": [
      {
        "model": "Intel(R) Xeon(R) CPU E5-2630L v2 @ 2.40GHz",
        "speed": 2399,
        "user": 71757059,
        "nice": 0,
        "sys": 39445851,
        "idle": 29806721,
        "irq": 1001900
      }
    ],
    "networkInterfaces": [
      {
        "name": "Local Area Connection",
        "internal": false,
        "mac": "00:1c:42:18:ee:d2",
        "address": "fe80::21c:42ff:fe18:eed2",
        "netmask": "ffff:ffff:ffff:ffff::",
        "family": "IPv6",
        "scopeid": 10
      },
      {
        "name": "Local Area Connection",
        "internal": false,
        "mac": "00:1c:42:18:ee:d2",
        "address": "192.169.213.91",
        "netmask": "255.255.255.0",
        "family": "IPv4"
      },
      {
        "name": "Loopback Pseudo-Interface 1",
        "internal": true,
        "mac": "00:00:00:00:00:00",
        "address": "::1",
        "netmask": "ffff:ffff:ffff:ffff:ffff:ffff:ffff:ffff",
        "family": "IPv6",
        "scopeid": 0
      },
      {
        "name": "Loopback Pseudo-Interface 1",
        "internal": true,
        "mac": "00:00:00:00:00:00",
        "address": "127.0.0.1",
        "netmask": "255.0.0.0",
        "family": "IPv4"
      },
      {
        "name": "6TO4 Adapter",
        "internal": false,
        "mac": "00:00:00:00:00:00",
        "address": "2002:c0a9:d55b::c0a9:d55b",
        "netmask": "ffff:ffff:ffff:ffff:ffff:ffff:ffff:ffff",
        "family": "IPv6",
        "scopeid": 0
      }
    ],
    "host": "s192-169-213-91"
  },
  "javascriptStack": {
    "message": "No stack.",
    "stack": [
      "Unavailable."
    ]
  },
  "nativeStack": [
    {
      "pc": "0x000000013f7e1c09",
      "symbol": "std::basic_ostream<char,std::char_traits<char> >::operator<<+10857"
    },
    {
      "pc": "0x000000013f7e5f7c",
      "symbol": "std::basic_ostream<char,std::char_traits<char> >::operator<<+28124"
    },
    {
      "pc": "0x000000013f7e4f38",
      "symbol": "std::basic_ostream<char,std::char_traits<char> >::operator<<+23960"
    },
    {
      "pc": "0x000000013f8debcb",
      "symbol": "v8::base::CPU::has_sse+38187"
    },
    {
      "pc": "0x0000000140107fee",
      "symbol": "v8::Isolate::ReportExternalAllocationLimitReached+94"
    },
    {
      "pc": "0x00000001400ef741",
      "symbol": "v8::SharedArrayBuffer::Externalize+785"
    },
    {
      "pc": "0x000000013ffb67ac",
      "symbol": "v8::internal::Heap::EphemeronKeyWriteBarrierFromCode+1468"
    },
    {
      "pc": "0x000000013ffbe80b",
      "symbol": "v8::internal::Heap::PageFlagsAreConsistent+3739"
    },
    {
      "pc": "0x000000013ffb3cf3",
      "symbol": "v8::internal::Heap::CollectGarbage+1283"
    },
    {
      "pc": "0x000000013ffb2484",
      "symbol": "v8::internal::Heap::AllocateExternalBackingStore+1396"
    },
    {
      "pc": "0x000000013ffd4554",
      "symbol": "v8::internal::Factory::NewFillerObject+196"
    },
    {
      "pc": "0x000000013fd2e841",
      "symbol": "v8::internal::interpreter::JumpTableTargetOffsets::iterator::operator=+1681"
    },
    {
      "pc": "0x000000014055154d",
      "symbol": "v8::internal::SetupIsolateDelegate::SetupHeap+517453"
    },
    {
      "pc": "0x00000001405268bb",
      "symbol": "v8::internal::SetupIsolateDelegate::SetupHeap+342203"
    },
    {
      "pc": "0x00000001404dce6b",
      "symbol": "v8::internal::SetupIsolateDelegate::SetupHeap+40555"
    },
    {
      "pc": "0x00000001404dce6b",
      "symbol": "v8::internal::SetupIsolateDelegate::SetupHeap+40555"
    },
    {
      "pc": "0x00000001404dce6b",
      "symbol": "v8::internal::SetupIsolateDelegate::SetupHeap+40555"
    },
    {
      "pc": "0x00000001404dce6b",
      "symbol": "v8::internal::SetupIsolateDelegate::SetupHeap+40555"
    },
    {
      "pc": "0x00000001404dce6b",
      "symbol": "v8::internal::SetupIsolateDelegate::SetupHeap+40555"
    },
    {
      "pc": "0x00000001404d6a69",
      "symbol": "v8::internal::SetupIsolateDelegate::SetupHeap+14953"
    },
    {
      "pc": "0x00000001404dce6b",
      "symbol": "v8::internal::SetupIsolateDelegate::SetupHeap+40555"
    },
    {
      "pc": "0x00000001404d6a69",
      "symbol": "v8::internal::SetupIsolateDelegate::SetupHeap+14953"
    },
    {
      "pc": "0x00000001404dce6b",
      "symbol": "v8::internal::SetupIsolateDelegate::SetupHeap+40555"
    },
    {
      "pc": "0x00000001404d6a69",
      "symbol": "v8::internal::SetupIsolateDelegate::SetupHeap+14953"
    },
    {
      "pc": "0x00000001404dce6b",
      "symbol": "v8::internal::SetupIsolateDelegate::SetupHeap+40555"
    },
    {
      "pc": "0x00000001404dce6b",
      "symbol": "v8::internal::SetupIsolateDelegate::SetupHeap+40555"
    },
    {
      "pc": "0x00000001404dce6b",
      "symbol": "v8::internal::SetupIsolateDelegate::SetupHeap+40555"
    },
    {
      "pc": "0x00000001404dce6b",
      "symbol": "v8::internal::SetupIsolateDelegate::SetupHeap+40555"
    },
    {
      "pc": "0x00000001404dce6b",
      "symbol": "v8::internal::SetupIsolateDelegate::SetupHeap+40555"
    },
    {
      "pc": "0x00000001404dce6b",
      "symbol": "v8::internal::SetupIsolateDelegate::SetupHeap+40555"
    },
    {
      "pc": "0x00000001404d6a69",
      "symbol": "v8::internal::SetupIsolateDelegate::SetupHeap+14953"
    },
    {
      "pc": "0x00000001404dce6b",
      "symbol": "v8::internal::SetupIsolateDelegate::SetupHeap+40555"
    },
    {
      "pc": "0x00000001404dce6b",
      "symbol": "v8::internal::SetupIsolateDelegate::SetupHeap+40555"
    },
    {
      "pc": "0x00000001404dce6b",
      "symbol": "v8::internal::SetupIsolateDelegate::SetupHeap+40555"
    },
    {
      "pc": "0x00000001404dce6b",
      "symbol": "v8::internal::SetupIsolateDelegate::SetupHeap+40555"
    },
    {
      "pc": "0x00000001404dce6b",
      "symbol": "v8::internal::SetupIsolateDelegate::SetupHeap+40555"
    },
    {
      "pc": "0x00000001404dce6b",
      "symbol": "v8::internal::SetupIsolateDelegate::SetupHeap+40555"
    },
    {
      "pc": "0x00000001404dce6b",
      "symbol": "v8::internal::SetupIsolateDelegate::SetupHeap+40555"
    },
    {
      "pc": "0x00000001404dce6b",
      "symbol": "v8::internal::SetupIsolateDelegate::SetupHeap+40555"
    },
    {
      "pc": "0x00000001404d6a69",
      "symbol": "v8::internal::SetupIsolateDelegate::SetupHeap+14953"
    },
    {
      "pc": "0x00000001404dce6b",
      "symbol": "v8::internal::SetupIsolateDelegate::SetupHeap+40555"
    },
    {
      "pc": "0x00000001404dce6b",
      "symbol": "v8::internal::SetupIsolateDelegate::SetupHeap+40555"
    },
    {
      "pc": "0x00000001404dce6b",
      "symbol": "v8::internal::SetupIsolateDelegate::SetupHeap+40555"
    },
    {
      "pc": "0x00000001404dce6b",
      "symbol": "v8::internal::SetupIsolateDelegate::SetupHeap+40555"
    },
    {
      "pc": "0x00000001404dce6b",
      "symbol": "v8::internal::SetupIsolateDelegate::SetupHeap+40555"
    },
    {
      "pc": "0x00000001404dce6b",
      "symbol": "v8::internal::SetupIsolateDelegate::SetupHeap+40555"
    },
    {
      "pc": "0x00000001404dce6b",
      "symbol": "v8::internal::SetupIsolateDelegate::SetupHeap+40555"
    },
    {
      "pc": "0x00000001404da9ce",
      "symbol": "v8::internal::SetupIsolateDelegate::SetupHeap+31182"
    },
    {
      "pc": "0x00000001404da5bc",
      "symbol": "v8::internal::SetupIsolateDelegate::SetupHeap+30140"
    },
    {
      "pc": "0x00000001400125a2",
      "symbol": "v8::internal::Execution::CallWasm+1410"
    },
    {
      "pc": "0x0000000140011f19",
      "symbol": "v8::internal::Execution::Call+185"
    },
    {
      "pc": "0x00000001400e5c20",
      "symbol": "v8::Function::Call+608"
    },
    {
      "pc": "0x000000013f907b71",
      "symbol": "node::Start+1153"
    },
    {
      "pc": "0x000000013f907da7",
      "symbol": "node::Start+1719"
    },
    {
      "pc": "0x000000013f90652a",
      "symbol": "node::LoadEnvironment+26"
    },
    {
      "pc": "0x000000013f8a9aa2",
      "symbol": "EVP_CIPHER_CTX_buf_noconst+29490"
    },
    {
      "pc": "0x000000013f907810",
      "symbol": "node::Start+288"
    },
    {
      "pc": "0x000000013f7b6abc",
      "symbol": "RC4_options+340412"
    },
    {
      "pc": "0x000000014060ef58",
      "symbol": "v8::internal::SetupIsolateDelegate::SetupHeap+1294168"
    },
    {
      "pc": "0x000000007721570d",
      "symbol": "BaseThreadInitThunk+13"
    },
    {
      "pc": "0x000000007737385d",
      "symbol": "RtlUserThreadStart+29"
    }
  ],
  "javascriptHeap": {
    "totalMemory": 8282112,
    "totalCommittedMemory": 8282112,
    "usedMemory": 7508504,
    "availableMemory": 2190580664,
    "memoryLimit": 2197815296,
    "heapSpaces": {
      "read_only_space": {
        "memorySize": 262144,
        "committedMemory": 262144,
        "capacity": 33040,
        "used": 33040,
        "available": 0
      },
      "new_space": {
        "memorySize": 1048576,
        "committedMemory": 1048576,
        "capacity": 1047424,
        "used": 1047408,
        "available": 16
      },
      "old_space": {
        "memorySize": 5120000,
        "committedMemory": 5120000,
        "capacity": 4994632,
        "used": 4994592,
        "available": 40
      },
      "code_space": {
        "memorySize": 430080,
        "committedMemory": 430080,
        "capacity": 250528,
        "used": 250528,
        "available": 0
      },
      "map_space": {
        "memorySize": 790528,
        "committedMemory": 790528,
        "capacity": 610800,
        "used": 610800,
        "available": 0
      },
      "large_object_space": {
        "memorySize": 581632,
        "committedMemory": 581632,
        "capacity": 569352,
        "used": 569352,
        "available": 0
      },
      "code_large_object_space": {
        "memorySize": 49152,
        "committedMemory": 49152,
        "capacity": 2784,
        "used": 2784,
        "available": 0
      },
      "new_large_object_space": {
        "memorySize": 0,
        "committedMemory": 0,
        "capacity": 1047424,
        "used": 0,
        "available": 1047424
      }
    }
  },
  "resourceUsage": {
    "userCpuSeconds": 0.592,
    "kernelCpuSeconds": 0.093,
    "cpuConsumptionPercent": 2.28333,
    "maxRss": 51843072,
    "pageFaults": {
      "IORequired": 17596,
      "IONotRequired": 0
    },
    "fsActivity": {
      "reads": 150,
      "writes": 15
    }
  },
  "libuv": [
  ],
  "environmentVariables": {
    "ALLUSERSPROFILE": "C:\\ProgramData",
    "APPDATA": "C:\\Users\\skyguardianu\\AppData\\Roaming",
    "automation": "true",
    "autorestart": "true",
    "axm_actions": "",
    "axm_dynamic": "[object Object]",
    "axm_monitor": "[object Object]",
    "axm_options": "[object Object]",
    "CATALINA_HOME": "C:\\Program Files (x86)\\CMS Server\\tomcat7.0",
    "CATALINA_HOME2": "C:\\Program Files\\CMSServerV6\\tomcat",
    "CLIENTNAME": "LAPTOP-4O3V3STT",
    "CommonProgramFiles": "C:\\Program Files\\Common Files",
    "CommonProgramFiles(x86)": "C:\\Program Files (x86)\\Common Files",
    "CommonProgramW6432": "C:\\Program Files\\Common Files",
    "COMPUTERNAME": "S192-169-213-91",
    "ComSpec": "C:\\Windows\\system32\\cmd.exe",
    "created_at": "1605812811405",
    "dp0": "C:\\Users\\skyguardianu\\AppData\\Roaming\\npm\\",
    "env": "[object Object]",
    "exec_interpreter": "node",
    "exec_mode": "fork_mode",
    "exit_code": "1",
    "FP_NO_HOST_CHECK": "NO",
    "HOMEDRIVE": "C:",
    "HOMEPATH": "\\Users\\skyguardianu",
    "instance_var": "NODE_APP_INSTANCE",
    "JAVA_HOME": "C:\\Program Files (x86)\\CMS Server\\jdk1.7",
    "kill_retry_time": "100",
    "km_link": "false",
    "LOCALAPPDATA": "C:\\Users\\skyguardianu\\AppData\\Local",
    "LOGONSERVER": "\\\\S192-169-213-91",
    "merge_logs": "true",
    "name": "gestorMartilloWS",
    "NODE_APP_INSTANCE": "0",
    "node_args": "",
    "node_version": "13.7.0",
    "NUMBER_OF_PROCESSORS": "1",
    "OS": "Windows_NT",
    "Path": "C:\\Program Files (x86)\\Common Files\\Oracle\\Java\\javapath;C:\\Program Files (x86)\\Parallels\\Parallels Tools\\Applications;C:\\Windows\\system32;C:\\Windows;C:\\Windows\\System32\\Wbem;C:\\Windows\\System32\\WindowsPowerShell\\v1.0\\;C:\\Windows\\system32;C:\\Program Files (x86)\\CMS Server\\jdk1.7\\bin;C:\\Program Files (x86)\\CMS Server\\jdk1.7\\jre\\bin;C:\\Program Files (x86)\\CMS Server\\jdk1.7\\jre\\bin\\server;C:\\Windows\\system32;C:\\Program Files (x86)\\CMS Server\\jdk1.7\\bin;C:\\Program Files (x86)\\CMS Server\\jdk1.7\\jre\\bin;C:\\Program Files (x86)\\CMS Server\\jdk1.7\\jre\\bin\\server;C:\\Windows\\system32;C:\\Program Files (x86)\\CMS Server\\jdk1.7\\bin;C:\\Program Files (x86)\\CMS Server\\jdk1.7\\jre\\bin;C:\\Program Files (x86)\\CMS Server\\jdk1.7\\jre\\bin\\server;C:\\Windows\\system32;C:\\Program Files (x86)\\CMS Server\\jdk1.7\\bin;C:\\Program Files (x86)\\CMS Server\\jdk1.7\\jre\\bin;C:\\Program Files (x86)\\CMS Server\\jdk1.7\\jre\\bin\\server;C:\\cURL\\bin;C:\\PHP;C:\\Program Files\\Java\\jdk1.8.0_181\\bin;C:\\Program Files\\MySQL\\MySQL Server 5.7\\bin;C:\\Program Files\\MySQL\\MySQL Utilities 1.6\\;C:\\Users\\skyguardianu\\AppData\\Roaming\\npm;C:\\Windows\\system32;C:\\Program Files (x86)\\CMS Server\\jdk1.7\\bin;C:\\Program Files (x86)\\CMS Server\\jdk1.7\\jre\\bin;C:\\Program Files (x86)\\CMS Server\\jdk1.7\\jre\\bin\\server;C:\\Program Files\\Microsoft\\Web Platform Installer\\;C:\\Program Files\\Git\\cmd;C:\\Program Files\\nodejs\\;C:\\Python27\\;Files\\Git\\bin\\;C:\\Program Files\\Git\\cmd\\;C:\\Users\\skyguardianu\\AppData\\Roaming\\npm",
    "PATHEXT": ".COM;.EXE;.BAT;.CMD;.VBS;.VBE;.JSE;.WSF;.WSH;.MSC",
    "PM2_HOME": "C:\\.pm2",
    "PM2_SERVICE_PM2_DIR": "C:\\USERS\\SKYGUARDIANU\\APPDATA\\ROAMING\\NPM\\node_modules\\pm2\\index.js",
    "PM2_USAGE": "CLI",
    "pmx": "true",
    "pm_cwd": "C:\\ws_modo_client\\WSgestores\\GestorMartilloWS",
    "pm_err_log_path": "C:\\.pm2\\logs\\gestorMartilloWS-error.log",
    "pm_exec_path": "C:\\ws_modo_client\\WSgestores\\GestorMartilloWS\\gestorMartilloWS.js",
    "pm_id": "26",
    "pm_out_log_path": "C:\\.pm2\\logs\\gestorMartilloWS-out.log",
    "pm_pid_path": "C:\\.pm2\\pids\\gestorMartilloWS-26.pid",
    "pm_uptime": "1608435784002",
    "PROCESSOR_ARCHITECTURE": "AMD64",
    "PROCESSOR_IDENTIFIER": "Intel64 Family 6 Model 62 Stepping 4, GenuineIntel",
    "PROCESSOR_LEVEL": "6",
    "PROCESSOR_REVISION": "3e04",
    "ProgramData": "C:\\ProgramData",
    "ProgramFiles": "C:\\Program Files",
    "ProgramFiles(x86)": "C:\\Program Files (x86)",
    "ProgramW6432": "C:\\Program Files",
    "PROMPT": "$P$G",
    "PSModulePath": "C:\\Windows\\system32\\WindowsPowerShell\\v1.0\\Modules\\",
    "PUBLIC": "C:\\Users\\Public",
    "restart_time": "0",
    "SESSIONNAME": "RDP-Tcp#1",
    "SET_PM2_HOME": "true",
    "SET_PM2_SERVICE_PM2_DIR": "true",
    "status": "launching",
    "SystemDrive": "C:",
    "SystemRoot": "C:\\Windows",
    "TEMP": "C:\\Users\\SKYGUA~1\\AppData\\Local\\Temp\\2",
    "TMP": "C:\\Users\\SKYGUA~1\\AppData\\Local\\Temp\\2",
    "treekill": "true",
    "unique_id": "2e567918-6193-40d7-b08f-3930343dc128",
    "unstable_restarts": "0",
    "USERDOMAIN": "S192-169-213-91",
    "username": "skyguardianm",
    "USERNAME": "skyguardianm",
    "USERPROFILE": "C:\\Users\\skyguardianu",
    "version": "1.0.0",
    "versioning": "null",
    "vizion": "true",
    "vizion_running": "false",
    "watch": "false",
    "windir": "C:\\Windows",
    "windowsHide": "true"
  },
  "sharedObjects": [
    "C:\\Program Files\\nodejs\\node.exe",
    "C:\\Windows\\SYSTEM32\\ntdll.dll",
    "C:\\Windows\\system32\\kernel32.dll",
    "C:\\Windows\\system32\\KERNELBASE.dll",
    "C:\\Windows\\system32\\dbghelp.dll",
    "C:\\Windows\\system32\\msvcrt.dll",
    "C:\\Windows\\system32\\WS2_32.dll",
    "C:\\Windows\\system32\\RPCRT4.dll",
    "C:\\Windows\\system32\\NSI.dll",
    "C:\\Windows\\system32\\IPHLPAPI.DLL",
    "C:\\Windows\\system32\\WINNSI.DLL",
    "C:\\Windows\\system32\\PSAPI.DLL",
    "C:\\Windows\\system32\\USERENV.dll",
    "C:\\Windows\\system32\\profapi.dll",
    "C:\\Windows\\system32\\ADVAPI32.dll",
    "C:\\Windows\\SYSTEM32\\sechost.dll",
    "C:\\Windows\\system32\\USER32.dll",
    "C:\\Windows\\system32\\GDI32.dll",
    "C:\\Windows\\system32\\LPK.dll",
    "C:\\Windows\\system32\\USP10.dll",
    "C:\\Windows\\system32\\CRYPT32.dll",
    "C:\\Windows\\system32\\MSASN1.dll",
    "C:\\Windows\\system32\\bcrypt.dll",
    "C:\\Windows\\system32\\WINMM.dll",
    "C:\\Windows\\system32\\IMM32.DLL",
    "C:\\Windows\\system32\\MSCTF.dll",
    "C:\\Windows\\system32\\api-ms-win-core-synch-l1-2-0.DLL",
    "C:\\Windows\\system32\\powrprof.dll",
    "C:\\Windows\\system32\\SETUPAPI.dll",
    "C:\\Windows\\system32\\CFGMGR32.dll",
    "C:\\Windows\\system32\\OLEAUT32.dll",
    "C:\\Windows\\system32\\ole32.dll",
    "C:\\Windows\\system32\\DEVOBJ.dll",
    "C:\\Windows\\system32\\mswsock.dll",
    "C:\\Windows\\System32\\wshtcpip.dll",
    "C:\\Windows\\System32\\wship6.dll",
    "C:\\Windows\\system32\\bcryptprimitives.dll",
    "C:\\Windows\\system32\\dhcpcsvc6.DLL",
    "C:\\Windows\\system32\\dhcpcsvc.DLL",
    "C:\\Windows\\system32\\cryptbase.dll",
    "C:\\Windows\\system32\\NLAapi.dll",
    "C:\\Windows\\system32\\napinsp.dll",
    "C:\\Windows\\system32\\DNSAPI.dll",
    "C:\\Windows\\System32\\winrnr.dll"
  ]
}